50115 946505
853362 826310
740466 92755
580707 739254
642667 304529
127677 324208
144664 144182
281387 75495
1823 475426
837735 694228
118086 705009
660043 688031
609646 277730
984540 482018
37187 36025
91836 667864
556466 60226
603173 571121
453375 543127
333678 305521
436874 852280
563136 146971
473812 620025
755558 88120
505446 926651
179381 781965
133705 771497
479294 214163
958296 427927
628384 216368
758626 846813
701430 67330
223816 826676
924919 692687
462493 662398
22988 953050
729720 233773
220432 178664
182511 594444
943147 832157
661863 465723
467819 618328
641786 464278
153840 643451
162077 276035
674945 528498
225265 437074
971338 307099
253650 520590
170819 304411
809888 161267
411033 731681
174523 379340
667099 22969
759920 916988
632534 19868
348868 68848
860520 518052
366748 8462
899002 9420
760963 852298
270507 874831
79755 651071
699450 97519
359572 991072
814217 930790
424375 870210
977645 548677
716916 677805
948662 993865
63572 237023
986734 98279
202599 558716
232329 265050
236004 156051
427447 425940
619711 662390
661748 46434
511880 750352
376311 910472
131555 845712
110924 331421
464351 719122
424686 338695
89223 118232
176904 439237
660535 62152
917136 508987
21127 436674
355614 950608
979107 160535
925132 672864
270551 465207
475276 61158
925859 537283
481187 454755
199761 473945
374993 19862
865937 530537
601594 398204
946092 63732
310894 727736
9088 9619
851118 476484
437311 89664
913495 374864
433126 689716
76842 497735
267937 984066
415746 119784
984999 283022
293405 156388
547545 876508
384194 726054
666878 637892
152267 550489
996168 952882
811706 574267
195612 906228
486812 928745
623017 449368
177630 998113
362366 396757
83593 199863
50325 73016
222843 762830
915331 949293
67060 788160
153959 490770
974458 580251
633044 92813
440937 688012
742104 510636
114701 313905
758723 774791
841729 246371
284655 224293
898464 3943
219736 461512
236556 775946
144535 477636
829483 195400
581364 277621
842391 302840
663934 385053
670064 986306
662595 632369
197619 407791
806236 512762
106793 825885
721425 4558
23392 485172
741477 120469
29213 484909
292422 388045
534790 686133
351140 114888
195932 102987
890838 263276
146715 831030
247980 828872
251154 190207
265820 722662
394736 642865
562358 742322
69100 26514
837899 807569
268426 176602
72851 296790
422109 241759
760461 695736
724401 361857
926209 760823
801087 727451
187815 475118
917390 86287
595875 393421
554775 931634
160366 876741
502716 939925
706203 957324
835815 143650
476126 761631
625318 232942
337812 655257
329996 340626
343374 334184
283518 877035
352568 24390
593169 772930
379372 670656
980053 607142
190689 393602
810823 714231
357174 958161
650134 953318
715010 439219
37325 15354
566634 103029
404257 728733
422705 518895
663202 376840
497882 539670
872106 24527
409541 996529
162513 740240
901949 147888
841224 447030
51454 209221
284425 928782
294667 501799
23522 282749
481662 304393
741842 607114
677778 515540
289255 164388
156734 419489
985018 643047
932492 276390
803174 939304
37315 364080
778804 449839
841605 501067
67111 745643
828512 531502
225604 403253
931952 29204
834638 302783
950528 382777
554842 810810
914450 162208
611280 24685
760877 751169
720279 763141
877799 392009
528942 860314
986583 231849
16459 789562
782486 705738
561717 32360
143454 917653
357290 437812
207 614787
362964 657860
151008 390239
853807 680499
417565 570712
966223 115573
694078 686847
26540 981337
832043 968927
558743 982092
685512 671885
197691 711399
214299 617439
682946 298561
268029 108052
26336 143143
297279 93
681539 547337
943925 357785
737451 547191
81121 675258
672691 40815
